Assignment 10 - Text Mining
…
nrc_joy <- get_sentiments("nrc") %>% 
  filter(sentiment == "joy")

tidy_books %>%
  filter(book == "Emma") %>%
  inner_join(nrc_joy) %>%
  count(word, sort = TRUE)

## # A tibble: 303 x 2
##    word        n
##    <chr>   <int>
##  1 good      359
##  2 young     192
##  3 friend    166
##  4 hope      143
##  5 happy     125
##  6 love      117
##  7 deal       92
##  8 found      92
##  9 present    89
## 10 kind       82
## #  with 293 more rows
…
# compairing 3 sentiment dictionaries
pride_prejudice <- tidy_books %>% 
  filter(book == "Pride & Prejudice")

pride_prejudice

## # A tibble: 122,204 x 4
##    book              linenumber chapter word     
##    <fct>                  <int>   <int> <chr>    
##  1 Pride & Prejudice          1       0 pride    
##  2 Pride & Prejudice          1       0 and      
##  3 Pride & Prejudice          1       0 prejudice
##  4 Pride & Prejudice          3       0 by       
##  5 Pride & Prejudice          3       0 jane     
##  6 Pride & Prejudice          3       0 austen   
##  7 Pride & Prejudice          7       1 chapter  
##  8 Pride & Prejudice          7       1 1        
##  9 Pride & Prejudice         10       1 it       
## 10 Pride & Prejudice         10       1 is       
## #  with 122,194 more rows
…
## # A tibble: 2 x 2
##   sentiment     n
##   <chr>     <int>
## 1 negative   4781
## 2 positive   2005

# most common positive and negative words
bing_word_counts <- tidy_books %>%
  inner_join(get_sentiments("bing")) %>%
  count(word, sentiment, sort = TRUE) %>%
  ungroup()

bing_word_counts

## # A tibble: 2,585 x 3
##    word     sentiment     n
##    <chr>    <chr>     <int>
##  1 miss     negative   1855
##  2 well     positive   1523
##  3 good     positive   1380
##  4 great    positive    981
##  5 like     positive    725
##  6 better   positive    639
##  7 enough   positive    613
##  8 happy    positive    534
##  9 love     positive    495
## 10 pleasure positive    462
## #  with 2,575 more rows
…
custom_stop_words <- bind_rows(tibble(word = c("miss"), 
                                          lexicon = c("custom")), 
                               stop_words)

custom_stop_words

## # A tibble: 1,150 x 2
##    word        lexicon
##    <chr>       <chr>  
##  1 miss        custom 
##  2 a           SMART  
##  3 a's         SMART  
##  4 able        SMART  
##  5 about       SMART  
##  6 above       SMART  
##  7 according   SMART  
##  8 accordingly SMART  
##  9 across      SMART  
## 10 actually    SMART  
## #  with 1,140 more rows
…
My Bondage and My Freedom is an autobiographical slave narrative written by Frederick Douglass and published in 1855. Download data using gutenbergr package.

Reference: https://docsouth.unc.edu/neh/douglass55/douglass55.html

library(gutenbergr)

# get gutenberg_id
#gutenberg_metadata %>% filter(author == "Douglass, Frederick"
#, title == "My Bondage and My Freedom")

count_of_Bondage_Freedom <- gutenberg_download(202) 

count_of_Bondage_Freedom

## # A tibble: 12,208 x 2
##    gutenberg_id text                                                            
##           <int> <chr>                                                           
##  1          202 "MY BONDAGE and MY FREEDOM"                                     
##  2          202 ""                                                              
##  3          202 "By Frederick Douglass"                                         
##  4          202 ""                                                              
##  5          202 ""                                                              
##  6          202 "By a principle essential to Christianity, a PERSON is eternall
##  7          202 "differenced from a THING; so that the idea of a HUMAN BEING, n
##  8          202 "excludes the idea of PROPERTY IN THAT BEING."                  
##  9          202 "--COLERIDGE"                                                   
## 10          202 ""                                                              
## #  with 12,198 more rows

Convert Data to Tidy

count_Bondage_Freedom <- count_of_Bondage_Freedom[c(763:nrow(count_of_Bondage_Freedom)),]

Bondage_Freedom_Chapters <- count_Bondage_Freedom %>% 
  filter(text != "") %>%
  mutate(linenumber = row_number(),
         chapter = cumsum(str_detect(text, regex("CHAPTER [\\dIVXLC]", ignore_case =  TRUE)))) 

Bondage_Freedom_Chapters

## # A tibble: 10,624 x 4
##    gutenberg_id text                                          linenumber chapter
##           <int> <chr>                                              <int>   <int>
##  1          202 "CHAPTER I. _Childhood_"                               1       1
##  2          202 "PLACE OF BIRTH--CHARACTER OF THE DISTRICT--          2       1
##  3          202 "NAME--CHOPTANK RIVER--TIME OF BIRTH--GENEAL          3       1
##  4          202 "COUNTING TIME--NAMES OF GRANDPARENTS--THEIR          4       1
##  5          202 "ESPECIALLY ESTEEMED--\"BORN TO GOOD LUCK\"-          5       1
##  6          202 "POTATOES--SUPERSTITION--THE LOG CABIN--ITS           6       1
##  7          202 "CHILDREN--MY AUNTS--THEIR NAMES--FIRST KNOW          7       1
##  8          202 "MASTER--GRIEFS AND JOYS OF CHILDHOOD--COMPA          8       1
##  9          202 "SLAVE-BOY AND THE SON OF A SLAVEHOLDER."              9       1
## 10          202 "In Talbot county, Eastern Shore, Maryland,          10       1
## #  with 10,614 more rows
…
total_words <- book_words %>% 
  group_by(chapter) %>% 
  dplyr::summarize(total = sum(n))

book_words <- left_join(book_words, total_words)

book_words <- book_words %>%
  bind_tf_idf(word, chapter, n)

book_words %>%
  select(-total) %>%
  arrange(desc(tf_idf))

## # A tibble: 34,361 x 6
##    chapter word            n      tf   idf  tf_idf
##      <int> <chr>       <int>   <dbl> <dbl>   <dbl>
##  1       8 gore           19 0.00722  2.12 0.0153 
##  2       8 denby          10 0.00380  3.22 0.0122 
##  3      22 bedford        33 0.00546  1.83 0.0100 
##  4      17 covey          46 0.00956  1.02 0.00976
##  5       7 barney         10 0.00300  3.22 0.00967
##  6      16 covey          28 0.00919  1.02 0.00939
##  7      18 holidays       19 0.00336  2.53 0.00850
##  8       1 grandmother    18 0.00664  1.27 0.00845
##  9      23 collins         5 0.00235  3.22 0.00755
## 10       6 nelly          12 0.00234  3.22 0.00755
## #  with 34,351 more rows
…
